1 10 20
100 200 125
201 210 89
900 1000 174
1 999999 525
2010 21000 279
21000 2010 279
5 5 6
10000 10002 180
67 208934 383
103 5096 238
1354 17 182
103555 607882 470
12345 67890 340
15 15 18
999999 999999 259
70000 5768 340
198235 231 383
1234 9081 262
13905 9423 276
125 940236 525
2345 5342 238
12 45 112
2135 1354 180
64839 3267 340
3333 33333 308
11 111 119
3352 2354 217
69 420 144
23509 130 279
1095 130 179
135 269 128
94729 996812 525
205780 157257 370
775287 317392 509
882107 83534 525
783430 192697 509
316605 92809 443
368705 960477 525
756928 967137 525
908621 694816 525
494889 566841 470
404058 406744 405
527962 425449 470
333695 754027 509
998617 449726 525
560146 810515 509
661598 42538 509
663244 269743 509
43019 241814 443
537877 740043 509
15255 598054 470
487085 878609 525
234605 55036 443
397041 242987 441
92886 526355 470
675590 783280 504
449018 204566 449
237652 801765 509
215229 430336 449
178353 320512 443
346338 869746 525
8720 112333 354
866016 979146 507
430088 325609 449
340556 379893 441
649145 212943 509
252156 490720 449
183688 883190 525
172068 231806 443
324087 580937 470
169925 461609 449
219529 316397 443
667238 136512 509
867468 731787 525
753336 435279 509
865805 492496 525
614318 631955 509
777149 112161 509
418796 857445 525
689516 934101 525
82692 266662 443
58788 855681 525
734955 732789 349
273318 312739 389
329377 282954 389
131595 87985 354
628879 434270 509
828769 473111 509
520908 510486 470
71905 504922 449
274906 575314 470
372566 130854 443
294859 235486 407
411334 586308 470
443632 495341 444
618856 182858 470
666470 290238 509
59896 249730 443
837827 667830 525
762236 372545 509
873859 438931 525
338644 739149 509
370446 589087 470
945485 671587 525
4078 37276 324
372263 747192 509
700230 209766 509
512662 343368 470
491579 556606 470
305608 995298 525
554985 425276 470
280708 677508 509
513911 218740 470
690895 985141 525
900786 259761 525
192917 567119 470
218851 713807 509
733041 362886 509
467083 609105 470
678549 512415 509
10741 736862 509
50486 585475 470
103260 624017 470
529285 266741 470
190711 503414 449
221517 673710 509
701311 432491 509
996797 127407 525
443204 205942 449
295555 916180 525
905751 215652 525
832632 539221 509
29472 745625 509
655617 232002 509
492766 846996 525
593600 498977 470
643075 993079 525
807298 214764 509
822050 446007 509
27371 380169 443
459776 286352 449
97794 446942 449
371830 447833 449
575805 413469 470
910292 865597 476
341191 80021 443
58964 878697 525
786573 142998 509
455665 154455 449
26294 95002 351
791291 561877 509
