...............
----------------------------------------------------------------------
Ran 15 tests in 6.886s

OK
Name             Stmts   Miss Branch BrPart  Cover   Missing
------------------------------------------------------------
Collatz.py          32      0     14      1    98%   65->67
TestCollatz.py      64      0      2      0   100%
------------------------------------------------------------
TOTAL               96      0     16      1    99%
