......................
----------------------------------------------------------------------
Ran 22 tests in 0.556s

OK
Name             Stmts   Miss Branch BrPart  Cover   Missing
------------------------------------------------------------
Collatz.py          61      0     34      0   100%
TestCollatz.py      87      0      2      0   100%
------------------------------------------------------------
TOTAL              148      0     36      0   100%
