1 10 20
100 200 125
201 210 89
900 1000 174
1 1 1
84 308 128
4 93 116
3830 38 238
74927 31 340
1 90752 351
8034 74762 340
8739 1 262
3 10 20
7000 1000 262
100000 6573 351
7393 81937 351
46 71 113
2 1 2
4 4 3
910 1000 174
628 4 144
8 10 20
847 49282 324
1 3 8
384 247 144
87493 849 351
85762 27 351
3 95 116
2 3 8
48 4 112
95828 585 351
2099 434 182
28492 9 308
28 4 112
394 93 144
248 9 128
882 3 179
92747 38 351
75 2 116
950 3 179
30005 33 308
10000 20000 279
30000 50000 324
100 100000 351
4 98 119
748 20830 279
1 9999 262
2 1000 179
1000 100000 351
31 94 116
10 1 20
7 3 17
95 3 116
408 4 144
29094 20983 308
23874 20484 282
2000 2000 113
99999 99999 227
3840 2 238
90 10 116
1 1001 179
99 100 26
999 1 179
105 1 119
70 2 113
105 3943 238
1828 1830 131
2814 2830 173
10234 23489 279
10 20 21
231 30958 308
1385 894 182
6352 100 262
10000 9873 242
34 985 179
9837 4 262
98743 1 351
1 600 144
2983 378 217
5372 2912 238
48602 2342 324
46 37 110
900 1789 182
43782 2347 324
234 12478 268
93 86 93
23 4603 238
478 3 144
4732 199 238
3992 499 238
47 1948 182
483 29 144
47893 1000 324
8301 43 262
23499 101 279
23 3789 238
478 367 134
291 2378 183
16 9393 262
1287 380 182
12738 9992 268
8478 7 262
372 100 144
2378 84 183
4789 23748 282
9172 160 262
402 23 144
1999 19999 279
8823 2347 262
18 1247 182
1002 1003 112
500 500 111
347 479 134
987 48 179
70 2347 183
4999 388 238
382 28 144
3478 433 217
7379 2984 262
181 2839 209
1 9 20
12 29 112
10 12 15
7 5 17
55 77 116
929 484 179
1082 110000 354
123 1 119
32801 2 308
